<svg width="40" height="40" viewBox="0 0 40 40" fill="none" xmlns="http://www.w3.org/2000/svg" class="h-30 md:h-40 w-30 md:w-40">
    <rect x="0.5" y="0.5" width="39" height="39" rx="19.5" fill="#222222" stroke="#222222"></rect>
    <rect x="11" y="17" width="13" height="13" rx="2" stroke="#FFFFFF" stroke-linejoin="round"></rect>
    <rect x="17" y="11" width="13" height="13" rx="2" stroke="#FFFFFF" stroke-linejoin="round"></rect>
</svg>