<svg width="120" height="28" viewBox="0 0 120 28" fill="none" xmlns="http://www.w3.org/2000/svg">
<path d="M68.7625 16.285C69.1911 17.2707 69.384 18.3207 69.384 19.3921C69.4054 21.5134 68.5483 23.5277 67.0483 25.0276C66.3197 25.7562 65.4412 26.3133 64.4984 26.7204C62.4841 27.5561 60.2128 27.5561 58.1771 26.7204C57.2343 26.3133 56.3557 25.7562 55.6272 25.0276C54.1272 23.5491 53.2915 21.5134 53.2915 19.3921C53.2915 18.3207 53.5058 17.2707 53.9129 16.285C54.3201 15.3422 54.8986 14.485 55.6272 13.7565C58.7771 10.6066 63.8984 10.6066 67.0483 13.7565C67.7769 14.485 68.3554 15.3422 68.7625 16.285ZM65.5269 17.4421C65.3341 16.885 65.0341 16.3707 64.6484 15.9421C64.2627 15.5136 63.7698 15.1922 63.2341 14.9565C62.0341 14.485 60.6842 14.485 59.4842 14.9565C58.9485 15.1707 58.4771 15.5136 58.07 15.9421C57.6843 16.3707 57.3628 16.885 57.17 17.4421C56.7414 18.7064 56.7414 20.0778 57.17 21.3206C57.3628 21.8777 57.6628 22.392 58.07 22.8205C58.4557 23.2491 58.9485 23.5705 59.4842 23.8062C60.6842 24.2776 62.0341 24.2776 63.2341 23.8062C63.7698 23.5919 64.2412 23.2491 64.6484 22.8205C65.0341 22.392 65.3555 21.8777 65.5269 21.3206C65.9555 20.0778 65.9555 18.7064 65.5269 17.4421Z" fill="white"/>
<path d="M95.1831 23.9778H103.583V26.9777H90.9189V24.0849L98.8473 14.8066H91.1975V11.8066H103.154V14.678L95.1831 23.9778Z" fill="white"/>
<path d="M119.461 23.9778V26.9777H106.776V24.0849L114.704 14.8066H107.054V11.8066H119.033V14.678L111.04 23.9778H119.461Z" fill="white"/>
<path d="M49.9061 17.8066V26.9778H46.5633V18.8994C46.5633 17.0138 45.5991 14.7853 42.8991 14.7853C39.9421 14.7853 39.5135 17.3566 39.5135 18.8994V26.9564H36.1493V6.47119H39.5135V12.8567C41.292 11.4211 44.0348 11.0354 46.2633 11.9782C48.5775 12.921 49.9061 15.0424 49.9061 17.8066Z" fill="white"/>
<path d="M83.7408 11.828H87.0836V20.4207C87.0836 22.6277 86.355 25.5205 82.8408 26.8491C81.0623 27.5133 79.0909 27.5133 77.291 26.8705C74.441 25.7991 73.0054 23.6563 73.0054 20.4421V11.7852H76.3267V20.0778C76.3267 20.5492 76.391 21.0206 76.5196 21.4921C76.6481 21.9635 76.8624 22.392 77.141 22.7777C77.441 23.1634 77.8267 23.5063 78.2767 23.7206C79.3909 24.2134 80.6552 24.2134 81.748 23.7206C82.198 23.4849 82.5837 23.1634 82.8837 22.7777C83.1623 22.392 83.3765 21.9635 83.5051 21.4921C83.6337 21.0421 83.698 20.5706 83.698 20.0778V11.828H83.7408Z" fill="white"/>
<path d="M15.0639 18.471H9.04263V26.9779H0V0H5.99985V6.47127L24.1065 11.6569V26.9779H15.0639V18.471Z" fill="#4DBC15"/>
</svg>
